<svg xmlns="http://www.w3.org/2000/svg" width="183" height="183" viewBox="0 0 183 183">
  <defs>
    <style>
      .cls-1 {
        fill: none;
      }
    </style>
  </defs>
  <g id="Group_83" data-name="Group 83" transform="translate(-8746 -7473)">
    <rect id="Rectangle_379" data-name="Rectangle 379" class="cls-1" width="183" height="183" transform="translate(8746 7473)"/>
    <g id="Group_82" data-name="Group 82" transform="translate(10122.081 -2637.667)">
      <path id="Path_67" data-name="Path 67" d="M354.806,176.243a16.446,16.446,0,0,0-2.224-6.56,16.672,16.672,0,0,0-5.053-5.274c-4.413-2.949-10.8-4.488-19.253-3.625-10.107,1.035-20.685-4.535-21.9-5.179a3.129,3.129,0,0,0-4.169.588,2.647,2.647,0,0,0-.564,1.938c1.768,16.183,5.9,27.138,11.067,34.076a24.741,24.741,0,0,0,12.314,9.259,20.234,20.234,0,0,0,13.256-.408,23.347,23.347,0,0,0,3.588-1.663c-.226-.367-.46-.727-.709-1.084a18.464,18.464,0,0,0-3-3.3,16.468,16.468,0,0,1-2.02.911,13.986,13.986,0,0,1-9.148.3,18.978,18.978,0,0,1-9.3-7.174c-4.11-5.509-7.5-14.031-9.366-26.384,4.954,1.993,12.8,4.394,20.516,3.6,6.857-.708,11.791.406,15.16,2.606a10.965,10.965,0,0,1,3.369,3.484,11.122,11.122,0,0,1,1.5,4.458,14.22,14.22,0,0,1-.22,4.488,34.753,34.753,0,0,1,4.9,4.363,20.428,20.428,0,0,0,1.246-9.417Zm0,0" transform="translate(-1640.011 9956.537)"/>
      <rect id="Rectangle_374" data-name="Rectangle 374" class="cls-1" width="126.894" height="182.066" transform="translate(-1347.975 10111.6)"/>
      <path id="Path_68" data-name="Path 68" d="M382.28,184.264a3.122,3.122,0,0,0-4.158.644c-.025.03-.046.061-.07.094-2.12,2.888-5.305,4.52-8.574,6.184-5.053,2.6-10.359,5.288-13.745,12.037-4.025-13.8-12.447-18.128-20.6-22.272-4.531-2.307-8.944-4.567-11.942-8.663a3.124,3.124,0,0,0-4.16-.644,2.66,2.66,0,0,0-.759,3.783c3.807,5.195,8.826,7.767,14,10.406,8.558,4.347,17.553,8.946,19.44,28.863H355.2c.875,0,3.1,0,3.369.08,1.8-12.556,7.915-15.7,13.743-18.616,3.944-2.072,7.749-4.018,10.664-8.019a2.658,2.658,0,0,0-.691-3.877Zm0,0" transform="translate(-1639.744 9955.688)"/>
      <path id="Path_69" data-name="Path 69" d="M355.58,222.874c-34.868-.021-63.15,26.3-63.174,58.788a56.865,56.865,0,0,0,18.454,41.6A65.34,65.34,0,0,0,355.5,340.527c34.866.021,63.151-26.3,63.172-58.787s-28.223-58.844-63.09-58.866Zm30.894,14.079A54.123,54.123,0,0,1,409.6,264.5a84.77,84.77,0,0,0-12.179-8.006c-8.236-4.709-14.333-8.224-10.948-19.541Zm-76.338,77.175a50.719,50.719,0,0,1-11.791-32.41,51.3,51.3,0,0,1,16.691-37.669c2.746,7.03,8.138,11.347,13.072,15.287,4.5,3.595,8.523,6.827,8.609,11.332,0,3.25-2.091,5.715-4.481,8.444a27.85,27.85,0,0,0-7.058,11.866,32.965,32.965,0,0,0-.3,8.632c.184,4.631.421,10.014-1.147,13.388-1.415,3.139-5.053,4.394-13.593,1.13ZM355.5,334.971v-.016a62.117,62.117,0,0,1-6.975-.392,8.131,8.131,0,0,1,3.134-10.407c2.628-1.788,9.87.221,17.5,2.341,3.941,1.1,7.968,2.213,11.791,2.9a60.389,60.389,0,0,1-25.451,5.571Zm34.192-10.595c-4.766.769-11.975-1.24-18.9-3.139-9.078-2.528-17.7-4.912-22.722-1.491a12.813,12.813,0,0,0-6.047,13.733,58.534,58.534,0,0,1-24.291-11.8,10.775,10.775,0,0,0,11.506-6.483c2.071-4.488,1.819-10.562,1.684-15.772a31.385,31.385,0,0,1,.134-7.143,23.491,23.491,0,0,1,5.878-9.619c3.117-3.548,5.913-6.751,5.813-12.023-.134-7.032-5.053-10.987-10.68-15.478-4.819-3.86-10.107-8.129-12.043-15.145A59.591,59.591,0,0,1,355.5,228.462a60.36,60.36,0,0,1,25.652,5.65C375.441,250.42,383.424,255,394.24,261.25c5.811,3.344,12.6,7.221,17.957,14.221a49.679,49.679,0,0,1,.386,6.277c-.017,16.772-8.494,32.56-22.892,42.629Zm0,0" transform="translate(-1640.164 9952.958)"/>
      <path id="Path_70" data-name="Path 70" d="M392.4,172.688a3.164,3.164,0,0,0-1.808.372s-8.237,4.567-15.9,3.782c-6.452-.659-11.369.518-14.789,2.811a13.052,13.052,0,0,0-3.991,4.125,12.813,12.813,0,0,0-1.684,5.134,15.008,15.008,0,0,0,.252,5.226,30.129,30.129,0,0,1,5.658-4.457v-.158a7.588,7.588,0,0,1,1.011-3.028,7.457,7.457,0,0,1,2.274-2.324c2.274-1.57,5.794-2.291,10.662-1.788a33.189,33.189,0,0,0,14.317-2.23c-1.4,8.351-3.772,14.126-6.619,17.972a13.291,13.291,0,0,1-6.5,5.054,9.381,9.381,0,0,1-4.887.2,26.159,26.159,0,0,0-4.125,4.474l.64.249a15.8,15.8,0,0,0,10.359.314,19.074,19.074,0,0,0,9.484-7.141c3.89-5.227,6.99-13.452,8.322-25.551a2.843,2.843,0,0,0-2.675-3.042Zm0,0" transform="translate(-1639.142 9955.607)"/>
    </g>
  </g>
</svg>
